ID;Kategorie
213084031;Beleuchtung
293332011;Beleuchtung/Außenbeleuchtung
3884396031;Beleuchtung/Außenbeleuchtung/Außenbeleuchtung-Zubehör
3884397031;Beleuchtung/Außenbeleuchtung/Außenbeleuchtung-Zubehör/Lampenöl
3884398031;Beleuchtung/Außenbeleuchtung/Außenbeleuchtung-Zubehör/Niederspannungstransformatoren
248436031;Beleuchtung/Außenbeleuchtung/Außenwandleuchten
248434031;Beleuchtung/Außenbeleuchtung/Flut- & Spotbeleuchtung
3884402031;Beleuchtung/Außenbeleuchtung/Garten-Fackeln
2694227031;Beleuchtung/Außenbeleuchtung/Laternen
248441031;Beleuchtung/Außenbeleuchtung/Lichterketten
3884401031;Beleuchtung/Außenbeleuchtung/Lichtschlöuche
3884400031;Beleuchtung/Außenbeleuchtung/Pfostenlichter
248439031;Beleuchtung/Außenbeleuchtung/Sicherheitsbeleuchtung
112772011;Beleuchtung/Außenbeleuchtung/Solarleuchten
3884403031;Beleuchtung/Außenbeleuchtung/Sonnenschirmbeleuchtung
248438031;Beleuchtung/Außenbeleuchtung/Teichbeleuchtung
3884395031;Beleuchtung/Außenbeleuchtung/Terrassen-Beleuchtung
3884399031;Beleuchtung/Außenbeleuchtung/Tischbeleuchtung
248437031;Beleuchtung/Außenbeleuchtung/Wegeleuchten
165192011;Beleuchtung/Bad-Beleuchtung
3884352031;Beleuchtung/Bad-Beleuchtung/Deckenleuchten
3884354031;Beleuchtung/Bad-Beleuchtung/Einbauleuchten
3884353031;Beleuchtung/Bad-Beleuchtung/Spiegellampen
3884355031;Beleuchtung/Bad-Beleuchtung/Wandleuchten
3780981;Beleuchtung/Innenbeleuchtung
248297031;Beleuchtung/Innenbeleuchtung/Deckenbeleuchtung
3884359031;Beleuchtung/Innenbeleuchtung/Deckenbeleuchtung/Bürodeckenleuchten
165178011;Beleuchtung/Innenbeleuchtung/Deckenbeleuchtung/Deckenleuchten
3884375031;Beleuchtung/Innenbeleuchtung/Deckenbeleuchtung/Deckenspots
248307031;Beleuchtung/Innenbeleuchtung/Deckenbeleuchtung/Deckenventilatoren mit Beleuchtung
165179011;Beleuchtung/Innenbeleuchtung/Deckenbeleuchtung/Hänge- & Pendelleuchten
248308031;Beleuchtung/Innenbeleuchtung/Deckenbeleuchtung/Kronleuchter
3884377031;Beleuchtung/Innenbeleuchtung/Deckenbeleuchtung/Leuchtensysteme
165189011;Beleuchtung/Innenbeleuchtung/Deckenbeleuchtung/Schienen- & Seilsysteme
165184011;Beleuchtung/Innenbeleuchtung/Einbauleuchten
165188011;Beleuchtung/Innenbeleuchtung/Klemmleuchten
357666011;Beleuchtung/Innenbeleuchtung/Leuchten für Kinder
3884361031;Beleuchtung/Innenbeleuchtung/Leuchten für Kinder/Deckenleuchten
3884364031;Beleuchtung/Innenbeleuchtung/Leuchten für Kinder/Lichtwecker
357668011;Beleuchtung/Innenbeleuchtung/Leuchten für Kinder/Nachtlichter & Schlummerleuchten
2655170031;Beleuchtung/Innenbeleuchtung/Leuchten für Kinder/Schreibtischlampen
3884362031;Beleuchtung/Innenbeleuchtung/Leuchten für Kinder/Standleuchten
3884363031;Beleuchtung/Innenbeleuchtung/Leuchten für Kinder/Stimmungslichter
2655171031;Beleuchtung/Innenbeleuchtung/Leuchten für Kinder/Taschenlampen
3884360031;Beleuchtung/Innenbeleuchtung/Leuchten für Kinder/Tisch- & Nachttischlampen
3884365031;Beleuchtung/Innenbeleuchtung/Leuchten für Kinder/Wandlichter
248423031;Beleuchtung/Innenbeleuchtung/Lichtwecker
165181011;Beleuchtung/Innenbeleuchtung/Spezial- & Stimmungsbeleuchtung
3884369031;Beleuchtung/Innenbeleuchtung/Spezial- & Stimmungsbeleuchtung/Buchlampen
248307031;Beleuchtung/Innenbeleuchtung/Spezial- & Stimmungsbeleuchtung/Deckenventilatoren mit Beleuchtung
2694221031;Beleuchtung/Innenbeleuchtung/Spezial- & Stimmungsbeleuchtung/LED Kerzen
3884370031;Beleuchtung/Innenbeleuchtung/Spezial- & Stimmungsbeleuchtung/LED Streifen
529540031;Beleuchtung/Innenbeleuchtung/Spezial- & Stimmungsbeleuchtung/Lauflichter & Lichtschläuche
2694222031;Beleuchtung/Innenbeleuchtung/Spezial- & Stimmungsbeleuchtung/Lavalampen
4206140031;Beleuchtung/Innenbeleuchtung/Spezial- & Stimmungsbeleuchtung/Leuchtschilder
248422031;Beleuchtung/Innenbeleuchtung/Spezial- & Stimmungsbeleuchtung/Lichterketten
3884372031;Beleuchtung/Innenbeleuchtung/Spezial- & Stimmungsbeleuchtung/Motiv-Lampen
2694223031;Beleuchtung/Innenbeleuchtung/Spezial- & Stimmungsbeleuchtung/Nachtlichter
3884373031;Beleuchtung/Innenbeleuchtung/Spezial- & Stimmungsbeleuchtung/Pflanzenlichter
3884371031;Beleuchtung/Innenbeleuchtung/Spezial- & Stimmungsbeleuchtung/Stimmungslichter
248309031;Beleuchtung/Innenbeleuchtung/Spezial- & Stimmungsbeleuchtung/Tageslichtleuchten
15404499031;Beleuchtung/Innenbeleuchtung/Spezial- & Stimmungsbeleuchtung/Touch-Leuchten
3884374031;Beleuchtung/Innenbeleuchtung/Spezial- & Stimmungsbeleuchtung/Werkstattlampen
3884380031;Beleuchtung/Innenbeleuchtung/Spiegelleuchten
248298031;Beleuchtung/Innenbeleuchtung/Spotleuchten & Leuchtensysteme
3884375031;Beleuchtung/Innenbeleuchtung/Spotleuchten & Leuchtensysteme/Deckenspots
3884377031;Beleuchtung/Innenbeleuchtung/Spotleuchten & Leuchtensysteme/Leuchtensysteme
165189011;Beleuchtung/Innenbeleuchtung/Spotleuchten & Leuchtensysteme/Schienen- & Seilsysteme
3884378031;Beleuchtung/Innenbeleuchtung/Spotleuchten & Leuchtensysteme/Spotbalken
3884379031;Beleuchtung/Innenbeleuchtung/Spotleuchten & Leuchtensysteme/Wandspots
3884366031;Beleuchtung/Innenbeleuchtung/Tisch- & Stehleuchten
248310031;Beleuchtung/Innenbeleuchtung/Tisch- & Stehleuchten/Lampenfüße
248311031;Beleuchtung/Innenbeleuchtung/Tisch- & Stehleuchten/Lampenschirme
3884368031;Beleuchtung/Innenbeleuchtung/Tisch- & Stehleuchten/Schreibtischlampen
165180011;Beleuchtung/Innenbeleuchtung/Tisch- & Stehleuchten/Standleuchten & Deckenfluter
3884367031;Beleuchtung/Innenbeleuchtung/Tisch- & Stehleuchten/Tisch- & Nachttischlampen
165191011;Beleuchtung/Innenbeleuchtung/Wandbeleuchtung
265914031;Beleuchtung/Innenbeleuchtung/Wandbeleuchtung/Bildbeleuchtung
3884381031;Beleuchtung/Innenbeleuchtung/Wandbeleuchtung/Kerzen-Wandleuchten
3884383031;Beleuchtung/Innenbeleuchtung/Wandbeleuchtung/Leselampen
265915031;Beleuchtung/Innenbeleuchtung/Wandbeleuchtung/Wandleuchten
3884379031;Beleuchtung/Innenbeleuchtung/Wandbeleuchtung/Wandspots
227261031;Beleuchtung/Leuchtmittel
3884393031;Beleuchtung/Leuchtmittel/Bühnenlampen
248427031;Beleuchtung/Leuchtmittel/Energiesparlampen
248431031;Beleuchtung/Leuchtmittel/Glühlampen
248428031;Beleuchtung/Leuchtmittel/Halogenlampen
2693126031;Beleuchtung/Leuchtmittel/Hochdruck-Entladungslampen
3884388031;Beleuchtung/Leuchtmittel/Hochdruck-Entladungslampen/Halogen-Metalldampflampen
3884386031;Beleuchtung/Leuchtmittel/Hochdruck-Entladungslampen/Krypton- & Xenon-Lampen
3884385031;Beleuchtung/Leuchtmittel/Hochdruck-Entladungslampen/Natriumdampf-Hochdrucklampe
12131478031;Beleuchtung/Leuchtmittel/Hochdruck-Entladungslampen/Natriumdampf-Niederdrucklampen
3884387031;Beleuchtung/Leuchtmittel/Hochdruck-Entladungslampen/Quecksilberdampflampen
248429031;Beleuchtung/Leuchtmittel/LED Lampen
248430031;Beleuchtung/Leuchtmittel/Leuchtstoffröhren
3884389031;Beleuchtung/Leuchtmittel/OLED Lampen
2656846031;Beleuchtung/Leuchtmittel/Reflektorlampen
248432031;Beleuchtung/Leuchtmittel/Speziallampen
3884391031;Beleuchtung/Leuchtmittel/Speziallampen/Dekorative Leuchtmittel
3884390031;Beleuchtung/Leuchtmittel/Speziallampen/Farbige Leuchtmittel
3884392031;Beleuchtung/Leuchtmittel/Speziallampen/Infrarot Lampen
3884394031;Beleuchtung/Leuchtmittel/UV-Lampen
3884384031;Beleuchtung/Leuchtmittel/Umweltfreundliche Halogenlampen
4540994031;Beleuchtung/Leuchtmittel/Wi-Fi Lampen
2076989031;Beleuchtung/Taschenlampen, Stirnlampen & Laternen
2076990031;Beleuchtung/Taschenlampen, Stirnlampen & Laternen/Laternen
2076992031;Beleuchtung/Taschenlampen, Stirnlampen & Laternen/Stirnlampen
2076991031;Beleuchtung/Taschenlampen, Stirnlampen & Laternen/Taschenlampen
2076993031;Beleuchtung/Taschenlampen, Stirnlampen & Laternen/Taschenlampen für Schlüsselanhönger
3884356031;Beleuchtung/Weihnachtsbeleuchtung
3884358031;Beleuchtung/Weihnachtsbeleuchtung/Außenbeleuchtung
3884357031;Beleuchtung/Weihnachtsbeleuchtung/Innenbeleuchtungz