<?xml version="1.0" encoding="utf-8"?>
<!-- Generator: Adobe Illustrator 19.2.1, SVG Export Plug-In . SVG Version: 6.00 Build 0)  -->
<svg version="1.1" id="Layer_1" xmlns="http://www.w3.org/2000/svg" xmlns:xlink="http://www.w3.org/1999/xlink" x="0px" y="0px"
	 viewBox="0 0 52 52" style="enable-background:new 0 0 52 52;" xml:space="preserve">
<style type="text/css">
	.st0{fill:none;}
	.st1{fill:#FBAF29;}
</style>
<path d="M38.9,31.2l-1.4-1.8c-0.3-0.4-0.5-2-0.5-2.9V14.1c0-4.5-3.9-7.3-11.5-7c-4.6,0.2-9,1.9-10.2,7.4c-0.1,0.2,0,0.5,0.2,0.7
	c0.1,0.2,0.4,0.3,0.6,0.4l4.7,0.5c0.5,0,0.9-0.3,1-0.7c0.3-1.7,1.8-3,3.8-3c2.9,0,4.3,1.5,4.3,3.5v2.6l-6,0.4
	c-4.9,0.4-9.6,3.5-9.7,9.6c-0.1,5.6,3.6,8.3,8.8,8c3.1-0.2,5.7-1.5,7.7-3.7l2.9,3.2c0.2,0.2,0.4,0.3,0.6,0.3c0.2,0,0.5-0.1,0.7-0.3
	l3.8-3.6C39.1,32.1,39.2,31.5,38.9,31.2z M30,25.7c0,2.7-1.9,4.9-3.4,5.4c-2.9,0.9-4.9-1.4-4.8-3.8c0.1-3,2.9-4.9,5.1-4.9l3.1-0.1
	V25.7z"/>
<g>
	<g>
		<path class="st1" d="M40.4,43c-0.4,1,0.6,0.3,0.7,0.2c1.3-1.2,2.3-4.8,1.7-5.3c-0.8-0.7-4.3-0.7-5.9,0.4c-0.7,0.5-0.3,0.6,0.4,0.5
			c1.2-0.1,2.3-0.2,3.2-0.1c0.9,0.1,0.9,0.5,0.7,1.4C41,41.3,40.9,41.9,40.4,43z"/>
		<path class="st1" d="M38.9,40.1c-9.1,3.7-19.7,3.2-28.4-1.3c-0.1-0.1-0.5-0.3-1-0.5C9.2,38,9.1,38.1,9,38.2
			C9,38.3,9,38.4,9.1,38.5c5.1,4.5,11.2,6.7,17.9,6.4c5.1-0.2,9.9-2.1,12.6-4c0.4-0.3,0.5-0.7,0.4-0.8
			C39.8,39.9,39.4,39.9,38.9,40.1z"/>
	</g>
</g>
</svg>
